…
## 2. Inspect filters before querying

Use
[`list_filters()`](https://strategicprojects.github.io/obrasgov/reference/list_filters.md)
to see the accepted filter names and their expected types. For example,
projects can be filtered by state, status, registration year, dates, and
several other attributes.

``` r

project_filters <- list_filters("projects")
project_filters[c("filter", "type")]
#> # A tibble: 29 × 2
#>    filter                  type     
#>    <chr>                   <chr>    
#>  1 id_projeto_investimento character
#>  2 projeto_estruturante    character
#>  3 desc_nome               character
#>  4 nr_cep                  character
#>  5 desc_endereco           character
#>  6 desc_projeto            character
#>  7 desc_funcao_social      character
#>  8 desc_meta_global        character
#>  9 dt_inicial_prevista     Date     
#> 10 dt_final_prevista       Date     
#> # ℹ 19 more rows
```
…
